ID,Q1a,Q1b,Q1c,Q2,Q3,Q4,Q5a,Q5aNote,Q5b,Q5bNote,Q6a,Q6aNote,Q6b,Q6bNote,Q7,Q7Note,Q8,Q9,Q10,Q10Note,Q11,subject_ID,date,note,label
OUA001_v00_nihss,1,2,2,1,0,2,1,,0,,1,,0,,1,,1,1,1,,1,OUA001,4/5/2011,,OUA001_v00_nihss
OUA002_v00_nihss,0,0,0,1,0,0,1,,0,,1,,0,,0,,0,0,0,,0,OUA002,4/25/2011,,OUA002_v00_nihss
OUA003_v00_nihss,1,1,1,0,1,0,0,,0,,0,,2,,1,,0,0,1,,1,OUA003,3/2/2011,,OUA003_v00_nihss
OUA004_v00_nihss,0,1,1,1,1,1,1,,0,,1,,0,,2,,1,1,0,,0,OUA004,8/25/2011,,OUA004_v00_nihss
OUA005_v00_nihss,0,0,0,0,0,1,0,,0,,0,,0,,0,,1,1,0,,0,OUA005,1/3/2011,,OUA005_v00_nihss
OUA006_v00_nihss,0,1,1,0,0,0,0,,0,,0,,0,,0,,1,0,1,,1,OUA006,7/16/2011,,OUA006_v00_nihss
OUA007_v00_nihss,0,0,0,0,0,0,0,,1,,2,,1,,0,,0,0,0,,0,OUA007,5/14/2011,,OUA007_v00_nihss
OUA001_v01_nihss,2,2,2,1,0,2,1,,0,,1,,0,,1,,0,1,1,,1,OUA001,4/12/2012,,OUA001_v01_nihss
OUA002_v01_nihss,0,0,0,0,0,1,0,,0,,0,,0,,0,,0,0,0,,0,OUA002,4/28/2012,,OUA002_v01_nihss
OUA003_v01_nihss,0,1,1,0,1,0,0,,0,,0,,1,,1,,0,0,1,,1,OUA003,2/28/2012,,OUA003_v01_nihss
OUA004_v01_nihss,0,1,1,1,1,1,1,,0,,1,,0,,2,,1,1,0,,0,OUA004,6/22/2012,,OUA004_v01_nihss
OUA005_v01_nihss,0,0,0,0,0,0,0,,0,,0,,0,,0,,0,0,0,,0,OUA005,1/18/2012,,OUA005_v01_nihss
OUA006_v01_nihss,0,0,0,0,0,0,0,,0,,0,,0,,0,,1,0,1,,0,OUA006,6/6/2012,,OUA006_v01_nihss
OUA007_v01_nihss,0,0,0,0,0,0,0,,1,,2,,1,,0,,0,0,0,,0,OUA007,5/24/2012,,OUA007_v01_nihss
